RemoteRepoName,LocalRepoName,RemoteRepoURL,TargetDirectory
dn.openlayers.dt,open.layers.dt,https://git@bitbucket.org/davidhary/dn.openlayers.dt.git,lib\vs\io
dn.openlayers,open.layers,https://git@bitbucket.org/davidhary/dn.openlayers.git,lib\vs\io
